﻿  MVP.cpp
C:\Users\elyschir\source\repos\Prates VS Ninjas\Prates VS Ninjas\MVP.cpp(4,1): warning C4326:  return type of 'main' should be 'int' instead of 'void'
  Prates VS Ninjas.vcxproj -> C:\Users\elyschir\source\repos\Prates VS Ninjas\Debug\Prates VS Ninjas.exe
