^C:\USERS\ELYSCHIR\DOCUMENTS\NVP\PRATES VS NINJAS\GAMESTRUCTURE.CPP
/c /ZI /JMC /nologo /W3 /WX- /diagnostics:column /sdl /Od /D _MBCS /Gm- /EHsc /RTC1 /MDd /GS /fp:precise /permissive- /Zc:wchar_t /Zc:forScope /Zc:inline /Fo"X64\DEBUG\\" /Fd"X64\DEBUG\VC142.PDB" /Gd /TP /FC C:\USERS\ELYSCHIR\DOCUMENTS\NVP\PRATES VS NINJAS\GAMESTRUCTURE.CPP
^C:\USERS\ELYSCHIR\DOCUMENTS\NVP\PRATES VS NINJAS\GAMEDRIVER.CPP
/c /ZI /JMC /nologo /W3 /WX- /diagnostics:column /sdl /Od /D _MBCS /Gm- /EHsc /RTC1 /MDd /GS /fp:precise /permissive- /Zc:wchar_t /Zc:forScope /Zc:inline /Fo"X64\DEBUG\\" /Fd"X64\DEBUG\VC142.PDB" /Gd /TP /FC C:\USERS\ELYSCHIR\DOCUMENTS\NVP\PRATES VS NINJAS\GAMEDRIVER.CPP
^C:\USERS\ELYSCHIR\DOCUMENTS\NVP\PRATES VS NINJAS\MVP.CPP
/c /ZI /JMC /nologo /W3 /WX- /diagnostics:column /sdl /Od /D _MBCS /Gm- /EHsc /RTC1 /MDd /GS /fp:precise /permissive- /Zc:wchar_t /Zc:forScope /Zc:inline /Fo"X64\DEBUG\\" /Fd"X64\DEBUG\VC142.PDB" /Gd /TP /FC C:\USERS\ELYSCHIR\DOCUMENTS\NVP\PRATES VS NINJAS\MVP.CPP
^C:\USERS\ELYSCHIR\DOCUMENTS\NVP\PRATES VS NINJAS\NINJAS.CPP
/c /ZI /JMC /nologo /W3 /WX- /diagnostics:column /sdl /Od /D _MBCS /Gm- /EHsc /RTC1 /MDd /GS /fp:precise /permissive- /Zc:wchar_t /Zc:forScope /Zc:inline /Fo"X64\DEBUG\\" /Fd"X64\DEBUG\VC142.PDB" /Gd /TP /FC C:\USERS\ELYSCHIR\DOCUMENTS\NVP\PRATES VS NINJAS\NINJAS.CPP
^C:\USERS\ELYSCHIR\DOCUMENTS\NVP\PRATES VS NINJAS\CHARACTER.CPP
/c /ZI /JMC /nologo /W3 /WX- /diagnostics:column /sdl /Od /D _MBCS /Gm- /EHsc /RTC1 /MDd /GS /fp:precise /permissive- /Zc:wchar_t /Zc:forScope /Zc:inline /Fo"X64\DEBUG\\" /Fd"X64\DEBUG\VC142.PDB" /Gd /TP /FC C:\USERS\ELYSCHIR\DOCUMENTS\NVP\PRATES VS NINJAS\CHARACTER.CPP
^C:\USERS\ELYSCHIR\DOCUMENTS\NVP\PRATES VS NINJAS\PIRATES.CPP
/c /ZI /JMC /nologo /W3 /WX- /diagnostics:column /sdl /Od /D _MBCS /Gm- /EHsc /RTC1 /MDd /GS /fp:precise /permissive- /Zc:wchar_t /Zc:forScope /Zc:inline /Fo"X64\DEBUG\\" /Fd"X64\DEBUG\VC142.PDB" /Gd /TP /FC C:\USERS\ELYSCHIR\DOCUMENTS\NVP\PRATES VS NINJAS\PIRATES.CPP
