^C:\USERS\ELYSCHIR\DOCUMENTS\NVP\PRATES VS NINJAS\GAMEDRIVER.CPP|C:\USERS\ELYSCHIR\DOCUMENTS\NVP\PRATES VS NINJAS\MVP.CPP
C:\USERS\ELYSCHIR\DOCUMENTS\NVP\PRATES VS NINJAS\X64\DEBUG\VC142.PDB
C:\USERS\ELYSCHIR\DOCUMENTS\NVP\PRATES VS NINJAS\X64\DEBUG\VC142.IDB
C:\USERS\ELYSCHIR\DOCUMENTS\NVP\PRATES VS NINJAS\X64\DEBUG\MVP.OBJ
C:\USERS\ELYSCHIR\DOCUMENTS\NVP\PRATES VS NINJAS\X64\DEBUG\GAMEDRIVER.OBJ
^C:\USERS\ELYSCHIR\DOCUMENTS\NVP\PRATES VS NINJAS\CHARACTER.CPP|C:\USERS\ELYSCHIR\DOCUMENTS\NVP\PRATES VS NINJAS\GAMEDRIVER.CPP|C:\USERS\ELYSCHIR\DOCUMENTS\NVP\PRATES VS NINJAS\GAMESTRUCTURE.CPP|C:\USERS\ELYSCHIR\DOCUMENTS\NVP\PRATES VS NINJAS\MVP.CPP|C:\USERS\ELYSCHIR\DOCUMENTS\NVP\PRATES VS NINJAS\NINJAS.CPP|C:\USERS\ELYSCHIR\DOCUMENTS\NVP\PRATES VS NINJAS\PIRATES.CPP
C:\USERS\ELYSCHIR\DOCUMENTS\NVP\PRATES VS NINJAS\X64\DEBUG\VC142.PDB
C:\USERS\ELYSCHIR\DOCUMENTS\NVP\PRATES VS NINJAS\X64\DEBUG\VC142.IDB
C:\USERS\ELYSCHIR\DOCUMENTS\NVP\PRATES VS NINJAS\X64\DEBUG\PIRATES.OBJ
C:\USERS\ELYSCHIR\DOCUMENTS\NVP\PRATES VS NINJAS\X64\DEBUG\NINJAS.OBJ
C:\USERS\ELYSCHIR\DOCUMENTS\NVP\PRATES VS NINJAS\X64\DEBUG\MVP.OBJ
C:\USERS\ELYSCHIR\DOCUMENTS\NVP\PRATES VS NINJAS\X64\DEBUG\GAMESTRUCTURE.OBJ
C:\USERS\ELYSCHIR\DOCUMENTS\NVP\PRATES VS NINJAS\X64\DEBUG\GAMEDRIVER.OBJ
C:\USERS\ELYSCHIR\DOCUMENTS\NVP\PRATES VS NINJAS\X64\DEBUG\CHARACTER.OBJ
^C:\USERS\ELYSCHIR\DOCUMENTS\NVP\PRATES VS NINJAS\GAMESTRUCTURE.CPP
C:\USERS\ELYSCHIR\DOCUMENTS\NVP\PRATES VS NINJAS\X64\DEBUG\VC142.PDB
^C:\USERS\ELYSCHIR\DOCUMENTS\NVP\PRATES VS NINJAS\CHARACTER.CPP|C:\USERS\ELYSCHIR\DOCUMENTS\NVP\PRATES VS NINJAS\GAMEDRIVER.CPP|C:\USERS\ELYSCHIR\DOCUMENTS\NVP\PRATES VS NINJAS\MVP.CPP|C:\USERS\ELYSCHIR\DOCUMENTS\NVP\PRATES VS NINJAS\NINJAS.CPP|C:\USERS\ELYSCHIR\DOCUMENTS\NVP\PRATES VS NINJAS\PIRATES.CPP
C:\USERS\ELYSCHIR\DOCUMENTS\NVP\PRATES VS NINJAS\X64\DEBUG\VC142.PDB
C:\USERS\ELYSCHIR\DOCUMENTS\NVP\PRATES VS NINJAS\X64\DEBUG\VC142.IDB
C:\USERS\ELYSCHIR\DOCUMENTS\NVP\PRATES VS NINJAS\X64\DEBUG\PIRATES.OBJ
C:\USERS\ELYSCHIR\DOCUMENTS\NVP\PRATES VS NINJAS\X64\DEBUG\NINJAS.OBJ
C:\USERS\ELYSCHIR\DOCUMENTS\NVP\PRATES VS NINJAS\X64\DEBUG\MVP.OBJ
C:\USERS\ELYSCHIR\DOCUMENTS\NVP\PRATES VS NINJAS\X64\DEBUG\GAMEDRIVER.OBJ
^C:\USERS\ELYSCHIR\DOCUMENTS\NVP\PRATES VS NINJAS\GAMEDRIVER.CPP
C:\USERS\ELYSCHIR\DOCUMENTS\NVP\PRATES VS NINJAS\X64\DEBUG\GAMEDRIVER.OBJ
^C:\USERS\ELYSCHIR\DOCUMENTS\NVP\PRATES VS NINJAS\CHARACTER.CPP|C:\USERS\ELYSCHIR\DOCUMENTS\NVP\PRATES VS NINJAS\MVP.CPP|C:\USERS\ELYSCHIR\DOCUMENTS\NVP\PRATES VS NINJAS\NINJAS.CPP|C:\USERS\ELYSCHIR\DOCUMENTS\NVP\PRATES VS NINJAS\PIRATES.CPP
C:\USERS\ELYSCHIR\DOCUMENTS\NVP\PRATES VS NINJAS\X64\DEBUG\VC142.PDB
C:\USERS\ELYSCHIR\DOCUMENTS\NVP\PRATES VS NINJAS\X64\DEBUG\VC142.IDB
C:\USERS\ELYSCHIR\DOCUMENTS\NVP\PRATES VS NINJAS\X64\DEBUG\PIRATES.OBJ
C:\USERS\ELYSCHIR\DOCUMENTS\NVP\PRATES VS NINJAS\X64\DEBUG\NINJAS.OBJ
C:\USERS\ELYSCHIR\DOCUMENTS\NVP\PRATES VS NINJAS\X64\DEBUG\MVP.OBJ
^C:\USERS\ELYSCHIR\DOCUMENTS\NVP\PRATES VS NINJAS\MVP.CPP
C:\USERS\ELYSCHIR\DOCUMENTS\NVP\PRATES VS NINJAS\X64\DEBUG\MVP.OBJ
^C:\USERS\ELYSCHIR\DOCUMENTS\NVP\PRATES VS NINJAS\NINJAS.CPP
C:\USERS\ELYSCHIR\DOCUMENTS\NVP\PRATES VS NINJAS\X64\DEBUG\NINJAS.OBJ
^C:\USERS\ELYSCHIR\DOCUMENTS\NVP\PRATES VS NINJAS\CHARACTER.CPP|C:\USERS\ELYSCHIR\DOCUMENTS\NVP\PRATES VS NINJAS\PIRATES.CPP
C:\USERS\ELYSCHIR\DOCUMENTS\NVP\PRATES VS NINJAS\X64\DEBUG\VC142.PDB
C:\USERS\ELYSCHIR\DOCUMENTS\NVP\PRATES VS NINJAS\X64\DEBUG\VC142.IDB
C:\USERS\ELYSCHIR\DOCUMENTS\NVP\PRATES VS NINJAS\X64\DEBUG\PIRATES.OBJ
C:\USERS\ELYSCHIR\DOCUMENTS\NVP\PRATES VS NINJAS\X64\DEBUG\CHARACTER.OBJ
^C:\USERS\ELYSCHIR\DOCUMENTS\NVP\PRATES VS NINJAS\CHARACTER.CPP
C:\USERS\ELYSCHIR\DOCUMENTS\NVP\PRATES VS NINJAS\X64\DEBUG\VC142.PDB
^C:\USERS\ELYSCHIR\DOCUMENTS\NVP\PRATES VS NINJAS\PIRATES.CPP
C:\USERS\ELYSCHIR\DOCUMENTS\NVP\PRATES VS NINJAS\X64\DEBUG\VC142.PDB
