^C:\USERS\ELYSCHIR\DOCUMENTS\NVP\PRATES VS NINJAS\X64\DEBUG\CHARACTER.OBJ|C:\USERS\ELYSCHIR\DOCUMENTS\NVP\PRATES VS NINJAS\X64\DEBUG\GAMEDRIVER.OBJ|C:\USERS\ELYSCHIR\DOCUMENTS\NVP\PRATES VS NINJAS\X64\DEBUG\GAMESTRUCTURE.OBJ|C:\USERS\ELYSCHIR\DOCUMENTS\NVP\PRATES VS NINJAS\X64\DEBUG\MVP.OBJ|C:\USERS\ELYSCHIR\DOCUMENTS\NVP\PRATES VS NINJAS\X64\DEBUG\NINJAS.OBJ|C:\USERS\ELYSCHIR\DOCUMENTS\NVP\PRATES VS NINJAS\X64\DEBUG\PIRATES.OBJ
C:\PROGRAM FILES (X86)\WINDOWS KITS\10\LIB\10.0.18362.0\UM\X64\KERNEL32.LIB
C:\PROGRAM FILES (X86)\WINDOWS KITS\10\LIB\10.0.18362.0\UM\X64\USER32.LIB
C:\PROGRAM FILES (X86)\WINDOWS KITS\10\LIB\10.0.18362.0\UM\X64\GDI32.LIB
C:\PROGRAM FILES (X86)\WINDOWS KITS\10\LIB\10.0.18362.0\UM\X64\WINSPOOL.LIB
C:\PROGRAM FILES (X86)\WINDOWS KITS\10\LIB\10.0.18362.0\UM\X64\COMDLG32.LIB
C:\PROGRAM FILES (X86)\WINDOWS KITS\10\LIB\10.0.18362.0\UM\X64\ADVAPI32.LIB
C:\PROGRAM FILES (X86)\WINDOWS KITS\10\LIB\10.0.18362.0\UM\X64\SHELL32.LIB
C:\PROGRAM FILES (X86)\WINDOWS KITS\10\LIB\10.0.18362.0\UM\X64\OLE32.LIB
C:\PROGRAM FILES (X86)\WINDOWS KITS\10\LIB\10.0.18362.0\UM\X64\OLEAUT32.LIB
C:\PROGRAM FILES (X86)\WINDOWS KITS\10\LIB\10.0.18362.0\UM\X64\UUID.LIB
C:\PROGRAM FILES (X86)\WINDOWS KITS\10\LIB\10.0.18362.0\UM\X64\ODBC32.LIB
C:\PROGRAM FILES (X86)\WINDOWS KITS\10\LIB\10.0.18362.0\UM\X64\ODBCCP32.LIB
C:\USERS\ELYSCHIR\DOCUMENTS\NVP\PRATES VS NINJAS\X64\DEBUG\CHARACTER.OBJ
C:\USERS\ELYSCHIR\DOCUMENTS\NVP\PRATES VS NINJAS\X64\DEBUG\GAMEDRIVER.OBJ
C:\USERS\ELYSCHIR\DOCUMENTS\NVP\PRATES VS NINJAS\X64\DEBUG\GAMESTRUCTURE.OBJ
C:\USERS\ELYSCHIR\DOCUMENTS\NVP\PRATES VS NINJAS\X64\DEBUG\MVP.OBJ
C:\USERS\ELYSCHIR\DOCUMENTS\NVP\PRATES VS NINJAS\X64\DEBUG\NINJAS.OBJ
C:\USERS\ELYSCHIR\DOCUMENTS\NVP\PRATES VS NINJAS\X64\DEBUG\PIRATES.OBJ
C:\WINDOWS\SYSTEM32\TZRES.DLL
C:\WINDOWS\GLOBALIZATION\SORTING\SORTDEFAULT.NLS
C:\PROGRAM FILES (X86)\MICROSOFT VISUAL STUDIO\2019\ENTERPRISE\VC\TOOLS\MSVC\14.22.27905\LIB\X64\MSVCPRTD.LIB
C:\PROGRAM FILES (X86)\MICROSOFT VISUAL STUDIO\2019\ENTERPRISE\VC\TOOLS\MSVC\14.22.27905\LIB\X64\MSVCRTD.LIB
C:\PROGRAM FILES (X86)\MICROSOFT VISUAL STUDIO\2019\ENTERPRISE\VC\TOOLS\MSVC\14.22.27905\LIB\X64\OLDNAMES.LIB
C:\PROGRAM FILES (X86)\MICROSOFT VISUAL STUDIO\2019\ENTERPRISE\VC\TOOLS\MSVC\14.22.27905\LIB\X64\VCRUNTIMED.LIB
C:\PROGRAM FILES (X86)\WINDOWS KITS\10\LIB\10.0.18362.0\UCRT\X64\UCRTD.LIB
C:\PROGRAM FILES (X86)\MICROSOFT VISUAL STUDIO\2019\ENTERPRISE\VC\TOOLS\MSVC\14.22.27905\BIN\HOSTX86\X64\CVTRES.EXE
C:\PROGRAM FILES (X86)\MICROSOFT VISUAL STUDIO\2019\ENTERPRISE\VC\TOOLS\MSVC\14.22.27905\BIN\HOSTX86\X64\MSPDBSRV.EXE
